365835 365847
481887 481888
984659 984673
909337 909340
225460 225475
295188 295202
326311 326329
967167 967183
998572 998578
603270 603272
177774 177779
678704 678720
395659 395661
576417 576426
411097 411102
712162 712162
910564 910566
779702 779719
58348 58354
639766 639775
272895 272911
337233 337240
9013 9023
310544 310561
316577 316588
583219 583220
918313 918318
353655 353656
219404 219423
20004 20012
16258 16271
374099 374110
901879 901884
248617 248625
749858 749862
768860 768873
198941 198945
747003 747006
951468 951486
972452 972466
20270 20281
479730 479747
43001 43004
234217 234234
193260 193266
179662 179663
420442 420443
517774 517788
859545 859555
886186 886198
372342 372351
152368 152372
888156 888156
698310 698325
776749 776757
347846 347859
270469 270476
256281 256289
416406 416411
996600 996607
821081 821100
122070 122072
426812 426825
15545 15560
535104 535116
772936 772941
559246 559246
540631 540640
103095 103098
929095 929108
162261 162278
565432 565434
920032 920036
730273 730286
64546 64555
668074 668083
337614 337626
742291 742308
408627 408638
102903 102912
453958 453963
418123 418141
39008 39017
700653 700668
275036 275047
583781 583797
482333 482338
153582 153590
818098 818106
526907 526920
989644 989654
951727 951737
346686 346702
402709 402720
441910 441926
336051 336065
345268 345280
63961 63971
776583 776594
62343 62350
119287 119293
602214 602225
875389 875405
756835 756854
308164 308178
873315 873323
604074 604080
263528 263528
330740 330747
345174 345193
540366 540383
160940 160945
95846 95865
979453 979463
545659 545674
649565 649577
148442 148452
762357 762367
843002 843011
947047 947065
637368 637371
612309 612320
807438 807446
965889 965893
678803 678810
475118 475124
980261 980272
707130 707137
881099 881117
562472 562489
238129 238130
877498 877514
720144 720161
644624 644626
160677 160682
948388 948392
693140 693148
286567 286581
159520 159534
680018 680034
403865 403880
502319 502336
866309 866311
485556 485567
760297 760302
430291 430292
376771 376772
689664 689675
5172 5177
70135 70154
293124 293136
835529 835529
94186 94193
884758 884761
935112 935116
477276 477290
410152 410164
290083 290083
433092 433095
204291 204306
504463 504478
522497 522514
450184 450190
676738 676740
341443 341457
36090 36094
388448 388457
241041 241051
746328 746330
607192 607210
616522 616527
57105 57112
377835 377848
192148 192167
154030 154037
22660 22673
851801 851804
674144 674155
158504 158523
27995 28012
921753 921766
861135 861144
256610 256627
240115 240122
396129 396140
545977 545983
633867 633886
188230 188235
451774 451792
855124 855129
13833 13845
528932 528946
781947 781958
39496 39496
220469 220472
611785 611787
507714 507719
367451 367458
59945 59945
138836 138852
531987 532004
598060 598064
420432 420434
769493 769499
999440 999452
905623 905630
40558 40560
605032 605050
658141 658147
31953 31962
198816 198816
723923 723932
290861 290863
821377 821390
486122 486123
712721 712731
255721 255726
677071 677078
181613 181632
600679 600689
214965 214972
263607 263618
39762 39780
675620 675639
521301 521302
7990 8009
552502 552512
668197 668213
468613 468625
504136 504144
851412 851431
69500 69519
561078 561083
919802 919805
245214 245224
89627 89637
205607 205613
200872 200881
150675 150686
390153 390171
888022 888022
833561 833576
447496 447501
870582 870595
796561 796568
573419 573421
62611 62630
464086 464102
332637 332645
693125 693141
170194 170206
505808 505813
594632 594643
137620 137627
105729 105745
115379 115391
665094 665110
20826 20837
990827 990842
201633 201648
631979 631986
28488 28506
191142 191153
945133 945134
310038 310048
450627 450638
573253 573272
10869 10881
429768 429773
30602 30617
784787 784799
313894 313895
216300 216315
476086 476092
665693 665699
943269 943279
531325 531327
414421 414427
447438 447449
63765 63771
218700 218704
257261 257279
40925 40934
520569 520573
841463 841471
914672 914672
159500 159501
940625 940638
814279 814283
844911 844917
300573 300587
590463 590473
127677 127682
611107 611110
382109 382128
809522 809537
691039 691042
483743 483750
993594 993609
219092 219101
436920 436938
848347 848358
68919 68932
145173 145177
47022 47036
711286 711289
449763 449769
159242 159244
335390 335400
800885 800904
739799 739799
995331 995338
624995 625011
34463 34470
684640 684643
902728 902740
254123 254136
246294 246305
151083 151088
569119 569131
500131 500139
692058 692062
69363 69369
613023 613033
227960 227979
781386 781389
909857 909867
53474 53493
32241 32246
490976 490984
50955 50958
926038 926048
993072 993086
650793 650806
135980 135983
237821 237836
434520 434537
422663 422663
476216 476217
980004 980022
576696 576705
240395 240413
184633 184647
55898 55916
876779 876797
978822 978829
567762 567780
667269 667270
720231 720250
121346 121359
306997 306998
206762 206777
826878 826878
454391 454397
720761 720769
281438 281445
422058 422074
903471 903476
609359 609377
552795 552799
843351 843368
635347 635350
912737 912744
730619 730624
190221 190237
915021 915033
277645 277649
298876 298884
862987 863004
792439 792446
351986 352002
692960 692978
864438 864448
979487 979499
768695 768713
965140 965140
147089 147090
524320 524328
85500 85502
308953 308958
308051 308059
368981 368986
203403 203410
119646 119664
344295 344297
182261 182278
499987 500004
650535 650550
465987 466004
822489 822491
321302 321313
849162 849164
678567 678581
509338 509340
746167 746183
55027 55030
625168 625183
322488 322488
750971 750971
975058 975063
779021 779029
221573 221587
422077 422088
38767 38775
382489 382498
238466 238473
365281 365297
860333 860342
53605 53605
674535 674538
104101 104110
828088 828104
87308 87323
709626 709627
260517 260527
814316 814317
199311 199318
593803 593812
56679 56697
800092 800111
595551 595561
886128 886138
511636 511653
533852 533862
316930 316939
879073 879083
360336 360350
700112 700125
634548 634550
412985 413002
66785 66796
128569 128579
649405 649418
181092 181092
694064 694078
998709 998725
374392 374400
302919 302923
157366 157382
849863 849869
207414 207415
745096 745109
399437 399437
500470 500478
342314 342326
505298 505301
150131 150141
451431 451447
413191 413193
804453 804467
577845 577852
60244 60245
270138 270144
254804 254820
360761 360775
179325 179336
559046 559063
957125 957135
894196 894215
394998 395015
482471 482471
937458 937461
553659 553662
622645 622661
732670 732671
757736 757744
983712 983729
987325 987339
78314 78329
835453 835464
805340 805356
992854 992866
264963 264974
179812 179819
11860 11872
679479 679494
268115 268124
814016 814023
172048 172059
353148 353154
387932 387936
66807 66810
148350 148359
501308 501320
53149 53165
446544 446549
545917 545925
36255 36259
849028 849031
81230 81243
224615 224618
258121 258121
990513 990532
517586 517601
562278 562290
522645 522646
741863 741865
561929 561935
7275 7287
935351 935362
90830 90844
667537 667545
983408 983425
545258 545272
106329 106333
345049 345057
935967 935981
39006 39023
407774 407775
390871 390873
730643 730650
901789 901804
633973 633991
124169 124180
546020 546036
583238 583240
261760 261765
828819 828828
158355 158364
293370 293371
216843 216846
767455 767459
827637 827652
696279 696284
167706 167721
16168 16179
78349 78360
602111 602114
442907 442912
148715 148734
194676 194682
112456 112466
91182 91189
484299 484301
118039 118045
645565 645577
162051 162060
869523 869541
50224 50236
18136 18152
930500 930518
228289 228290
658474 658479
935417 935425
246668 246677
574674 574681
509694 509705
56846 56863
573447 573463
224932 224947
333266 333284
167375 167391
712367 712382
883556 883566
154104 154110
856717 856719
221965 221983
488559 488570
428223 428238
362789 362795
118599 118600
221968 221980
635125 635135
338760 338777
39203 39214
423037 423042
261613 261614
100679 100695
772700 772716
779787 779797
57621 57639
89843 89853
279341 279345
716988 716993
790951 790954
362367 362372
986986 986991
166003 166019
510552 510552
685019 685025
954729 954741
460919 460922
622439 622449
565320 565333
675526 675535
531227 531236
834858 834858
68249 68254
323316 323328
579612 579613
368040 368042
990467 990472
491922 491929
240513 240514
791376 791389
968328 968334
173531 173544
352808 352824
226610 226616
125273 125279
847534 847538
919367 919385
808393 808407
116253 116272
157799 157817
110580 110597
345054 345063
676916 676923
743665 743676
878106 878108
910229 910230
488258 488271
921561 921579
140103 140118
580647 580658
862702 862714
807706 807721
436956 436958
715673 715688
234506 234506
433603 433615
144039 144056