1 10 20
100 200 125
201 210 89
900 1000 174
453557 649579 509
455728 914186 525
671078 210196 509
834795 913908 525
500909 691062 509
943888 759857 525
222520 648505 509
812245 204369 509
845160 523387 525
486561 175980 449
994242 626204 525
894565 557178 525
154647 621468 470
252177 485692 449
24206 216569 386
235784 697204 509
273668 855803 525
782646 40411 509
164948 558392 470
236544 572983 470
601243 24452 470
397767 209218 443
784202 300730 509
200396 441531 449
431228 749734 509
824822 972516 525
303828 590841 470
696877 525005 509
555791 344156 470
836784 956104 525
377142 720229 509
875157 728970 525
159129 488810 449
281519 698027 509
708888 188415 509
338851 753523 509
924402 842020 476
663847 543380 509
129071 906050 525
907709 575278 525
114927 72697 354
731344 529405 509
690067 959461 525
1488 179831 383
481295 723359 509
433401 315041 449
339946 409671 441
137128 324639 443
889718 43944 525
95145 769980 509
616710 645464 509
875477 685999 525
944510 332768 525
418053 559132 470
234757 39914 443
474373 584374 470
272434 248404 407
620731 231340 470
337237 52689 443
546552 163757 470
454044 856662 525
358990 831620 509
670117 207166 509
626228 587275 447
609923 150412 470
906487 839973 445
598945 713097 509
370003 872117 525
760374 231042 509
178191 472441 449
220174 288528 443
602802 338177 470
579855 107940 470
522456 828873 509
432793 383328 449
611946 147176 470
711557 255816 509
374892 388446 423
445391 180941 449
344911 889501 525
807278 340851 509
415838 856113 525
998689 317201 525
365176 745214 509
1234 5124 238
3125 64236 340
6243 24633 282
213556 43 383
15 1532 182
1532 624623 470
512 4632 238
842436 345 525
2346 745 183
830917 247673 509
605166 698736 509
250775 750423 509
548658 735370 509
697418 221738 509
674506 775131 504
782104 995119 525
688190 450223 509
605640 50002 470
432257 353981 449
763785 412717 509
392158 549511 470
46342 2342 324
243633 111111 443
2235 234556 443
420 4200 238
123456 654321 509
426623 768549 509
8435 243432 443
98145 2345 351
1946 1999 175
2000 2020 144
12453 100 268
1 125 119
250 999 179
960241 434271 525
865659 145616 525
247124 142282 443
696882 196103 509
870734 724258 525
717651 844368 525
194195 776592 509
962758 990289 458
395063 565491 470
304643 88480 443
613617 355871 470
305111 211731 443
316371 604483 470
957452 453848 525
665289 979056 525
567492 345028 470
692765 823989 504
364883 196529 443
295997 228556 443
397112 643560 509
35749 432471 449
894433 808754 525
820502 391768 509
364609 370647 392
88600 654313 509
722761 757767 424
87290 442382 449
643180 46134 509
266055 358333 441
941982 970481 414
82622 512537 470
229080 385203 443
96289 712487 509
695533 924474 525
595040 725201 509
672145 732841 504
998655 7262 525
577354 717087 509
509081 840594 525
831500 527723 509
405410 729795 509
964162 557387 525
621608 214793 470
596158 637212 509
665236 843379 525
524781 817404 509
503074 466958 426
573818 751662 509
667837 982661 525
151060 556633 470
797029 930319 525
2436 124355 354
62342 12 340
8445 644821 509
100000 200000 383
200001 333333 443
543321 909090 525
828582 747474 468
435222 346666 449
442555 653614 509
562904 542108 452
955680 43039 525
927312 18601 525
722285 700736 504
735440 786085 468
278073 331556 389
643254 105690 509
54385 159606 383
753970 258474 509
48800 786717 509
212860 912835 525
17 20 21
20 99 119
29292 4 308
74 89 111
920 333 179
139910 560 354
239 112200 354
34242 99 311
572285 44276 470
362837 205472 443
679972 124127 509
671573 436067 509
671880 40028 509
859800 847512 419
480940 212254 449
999 91111 351
1 999999 525
